EESchema Schematic File Version 4
EELAYER 30 0
EELAYER END
$Descr A4 11693 8268
encoding utf-8
Sheet 5 6
Title ""
Date ""
Rev ""
Comp ""
Comment1 ""
Comment2 ""
Comment3 ""
Comment4 ""
$EndDescr
$Comp
L RF_Module:ESP-12E U5
U 1 1 5DA4285A
P 6260 2700
F 0 "U5" H 5980 3490 50  0000 C CNN
F 1 "ESP-12E" H 6570 3500 50  0000 C CNN
F 2 "RF_Module:ESP-12E" H 6260 2700 50  0001 C CNN
F 3 "http://wiki.ai-thinker.com/_media/esp8266/esp8266_series_modules_user_manual_v1.1.pdf" H 5910 2800 50  0001 C CNN
	1    6260 2700
	1    0    0    -1  
$EndComp
$Comp
L power:GND #PWR037
U 1 1 5DA59AC0
P 6260 3500
F 0 "#PWR037" H 6260 3250 50  0001 C CNN
F 1 "GND" H 6265 3327 50  0000 C CNN
F 2 "" H 6260 3500 50  0001 C CNN
F 3 "" H 6260 3500 50  0001 C CNN
	1    6260 3500
	1    0    0    -1  
$EndComp
Wire Wire Line
	6260 3500 6260 3400
$Comp
L power:+3.3V #PWR036
U 1 1 5DA7F716
P 6260 1560
F 0 "#PWR036" H 6260 1410 50  0001 C CNN
F 1 "+3.3V" H 6275 1733 50  0000 C CNN
F 2 "" H 6260 1560 50  0001 C CNN
F 3 "" H 6260 1560 50  0001 C CNN
	1    6260 1560
	1    0    0    -1  
$EndComp
Wire Wire Line
	6260 1900 6260 1560
$Comp
L Device:R R11
U 1 1 5DA80570
P 5430 2300
F 0 "R11" V 5340 2220 50  0000 C CNN
F 1 "10k" V 5340 2390 50  0000 C CNN
F 2 "Resistor_SMD:R_0805_2012Metric" V 5360 2300 50  0001 C CNN
F 3 "~" H 5430 2300 50  0001 C CNN
	1    5430 2300
	0    1    1    0   
$EndComp
$Comp
L Device:R R13
U 1 1 5DA81482
P 7630 3000
F 0 "R13" V 7540 2920 50  0000 C CNN
F 1 "10k" V 7540 3090 50  0000 C CNN
F 2 "Resistor_SMD:R_0805_2012Metric" V 7560 3000 50  0001 C CNN
F 3 "~" H 7630 3000 50  0001 C CNN
	1    7630 3000
	0    1    1    0   
$EndComp
Wire Wire Line
	5280 2300 5160 2300
Wire Wire Line
	5660 2300 5580 2300
$Comp
L power:GND #PWR039
U 1 1 5DA8A733
P 8070 3000
F 0 "#PWR039" H 8070 2750 50  0001 C CNN
F 1 "GND" V 8075 2872 50  0000 R CNN
F 2 "" H 8070 3000 50  0001 C CNN
F 3 "" H 8070 3000 50  0001 C CNN
	1    8070 3000
	0    -1   -1   0   
$EndComp
Wire Wire Line
	8070 3000 7780 3000
Wire Wire Line
	7300 2200 6860 2200
Wire Wire Line
	6860 2400 7300 2400
$Comp
L Device:R R12
U 1 1 5DA8CDBF
P 7010 1730
F 0 "R12" V 6920 1650 50  0000 C CNN
F 1 "10k" V 6920 1820 50  0000 C CNN
F 2 "Resistor_SMD:R_0805_2012Metric" V 6940 1730 50  0001 C CNN
F 3 "~" H 7010 1730 50  0001 C CNN
	1    7010 1730
	-1   0    0    1   
$EndComp
Wire Wire Line
	6260 1560 7010 1560
Wire Wire Line
	7010 1560 7010 1580
Connection ~ 6260 1560
Wire Wire Line
	6860 2100 7010 2100
Wire Wire Line
	7010 2100 7010 1880
Wire Wire Line
	7300 2100 7010 2100
Connection ~ 7010 2100
Wire Wire Line
	8150 2500 8080 2500
Wire Wire Line
	6860 2600 8080 2600
$Comp
L power:GND #PWR033
U 1 1 5DAF0707
P 2150 2220
F 0 "#PWR033" H 2150 1970 50  0001 C CNN
F 1 "GND" H 2155 2047 50  0000 C CNN
F 2 "" H 2150 2220 50  0001 C CNN
F 3 "" H 2150 2220 50  0001 C CNN
	1    2150 2220
	1    0    0    -1  
$EndComp
NoConn ~ 5660 2700
NoConn ~ 5660 2800
NoConn ~ 5660 3000
NoConn ~ 5660 3100
NoConn ~ 5660 3200
Wire Wire Line
	6860 2700 7000 2700
$Comp
L power:+3.3V #PWR035
U 1 1 5DA9F453
P 5160 2300
F 0 "#PWR035" H 5160 2150 50  0001 C CNN
F 1 "+3.3V" V 5175 2428 50  0000 L CNN
F 2 "" H 5160 2300 50  0001 C CNN
F 3 "" H 5160 2300 50  0001 C CNN
	1    5160 2300
	0    -1   -1   0   
$EndComp
Wire Wire Line
	6860 2800 7000 2800
Wire Wire Line
	6860 3100 7000 3100
Text Label 7000 3100 0    50   ~ 0
Encoder_B
Wire Wire Line
	5470 2100 5660 2100
NoConn ~ 5660 2900
Text Label 8150 2600 0    50   ~ 0
SCL_LOW
$Comp
L power:+5V #PWR041
U 1 1 5DE77959
P 9590 5110
F 0 "#PWR041" H 9590 4960 50  0001 C CNN
F 1 "+5V" V 9605 5238 50  0000 L CNN
F 2 "" H 9590 5110 50  0001 C CNN
F 3 "" H 9590 5110 50  0001 C CNN
	1    9590 5110
	0    -1   -1   0   
$EndComp
Text Label 7980 5210 2    50   ~ 0
SDA_LOW
Text Label 7980 6040 2    50   ~ 0
SCL_LOW
$Comp
L Transistor_FET:2N7002 Q5
U 1 1 5DEB78A0
P 8770 5940
F 0 "Q5" V 9020 5800 50  0000 C CNN
F 1 "2N7002" V 9020 6020 50  0000 C CNN
F 2 "Package_TO_SOT_SMD:SOT-23" H 8970 5865 50  0001 L CIN
F 3 "https://www.fairchildsemi.com/datasheets/2N/2N7002.pdf" H 8770 5940 50  0001 L CNN
	1    8770 5940
	0    1    1    0   
$EndComp
$Comp
L Transistor_FET:2N7002 Q4
U 1 1 5DEBB549
P 8770 5310
F 0 "Q4" V 9000 5130 50  0000 C CNN
F 1 "2N7002" V 9000 5380 50  0000 C CNN
F 2 "Package_TO_SOT_SMD:SOT-23" H 8970 5235 50  0001 L CIN
F 3 "https://www.fairchildsemi.com/datasheets/2N/2N7002.pdf" H 8770 5310 50  0001 L CNN
	1    8770 5310
	0    1    -1   0   
$EndComp
$Comp
L power:GND #PWR042
U 1 1 5DE77208
P 9600 4810
F 0 "#PWR042" H 9600 4560 50  0001 C CNN
F 1 "GND" H 9605 4637 50  0000 C CNN
F 2 "" H 9600 4810 50  0001 C CNN
F 3 "" H 9600 4810 50  0001 C CNN
	1    9600 4810
	0    1    1    0   
$EndComp
$Comp
L Connector_Generic:Conn_01x04 J9
U 1 1 5DE71942
P 10430 5220
F 0 "J9" H 10390 5420 50  0000 L CNN
F 1 "Connector_I2C_LCD" H 10260 4880 50  0000 L CNN
F 2 "Connector_JST:JST_PH_B4B-PH-K_1x04_P2.00mm_Vertical" H 10430 5220 50  0001 C CNN
F 3 "~" H 10430 5220 50  0001 C CNN
	1    10430 5220
	1    0    0    -1  
$EndComp
$Comp
L Device:R R14
U 1 1 5DEEFC27
P 8180 5420
F 0 "R14" V 8090 5340 50  0000 C CNN
F 1 "3k3" V 8090 5510 50  0000 C CNN
F 2 "Resistor_SMD:R_0805_2012Metric" V 8110 5420 50  0001 C CNN
F 3 "~" H 8180 5420 50  0001 C CNN
	1    8180 5420
	-1   0    0    1   
$EndComp
$Comp
L Device:R R15
U 1 1 5DEF5588
P 8180 5820
F 0 "R15" V 8090 5740 50  0000 C CNN
F 1 "3k3" V 8090 5910 50  0000 C CNN
F 2 "Resistor_SMD:R_0805_2012Metric" V 8110 5820 50  0001 C CNN
F 3 "~" H 8180 5820 50  0001 C CNN
	1    8180 5820
	-1   0    0    1   
$EndComp
$Comp
L power:+3.3V #PWR038
U 1 1 5DF122B3
P 8010 5620
F 0 "#PWR038" H 8010 5470 50  0001 C CNN
F 1 "+3.3V" V 8010 5880 50  0000 C CNN
F 2 "" H 8010 5620 50  0001 C CNN
F 3 "" H 8010 5620 50  0001 C CNN
	1    8010 5620
	0    -1   -1   0   
$EndComp
Wire Wire Line
	8770 5620 8770 5510
Wire Wire Line
	8770 5620 8770 5740
Connection ~ 8770 5620
Wire Wire Line
	8180 5620 8180 5570
Wire Wire Line
	7980 6040 8180 6040
Wire Wire Line
	7980 5210 8180 5210
Wire Wire Line
	8180 5270 8180 5210
Connection ~ 8180 5210
Wire Wire Line
	8180 5210 8570 5210
Wire Wire Line
	8180 5970 8180 6040
Connection ~ 8180 6040
Wire Wire Line
	8180 6040 8570 6040
$Comp
L Device:R R17
U 1 1 5DF53E1F
P 9360 5820
F 0 "R17" V 9270 5740 50  0000 C CNN
F 1 "4k7" V 9270 5910 50  0000 C CNN
F 2 "Resistor_SMD:R_0805_2012Metric" V 9290 5820 50  0001 C CNN
F 3 "~" H 9360 5820 50  0001 C CNN
	1    9360 5820
	1    0    0    -1  
$EndComp
$Comp
L Device:R R16
U 1 1 5DF53E25
P 9360 5420
F 0 "R16" V 9270 5340 50  0000 C CNN
F 1 "4k7" V 9270 5510 50  0000 C CNN
F 2 "Resistor_SMD:R_0805_2012Metric" V 9290 5420 50  0001 C CNN
F 3 "~" H 9360 5420 50  0001 C CNN
	1    9360 5420
	1    0    0    -1  
$EndComp
Wire Wire Line
	9360 5570 9360 5620
$Comp
L power:+5V #PWR040
U 1 1 5DF74C6F
P 9360 5620
F 0 "#PWR040" H 9360 5470 50  0001 C CNN
F 1 "+5V" V 9360 5750 50  0000 L CNN
F 2 "" H 9360 5620 50  0001 C CNN
F 3 "" H 9360 5620 50  0001 C CNN
	1    9360 5620
	0    1    1    0   
$EndComp
Connection ~ 9360 5620
Wire Wire Line
	9360 5620 9360 5670
Wire Wire Line
	8970 6040 9360 6040
Wire Wire Line
	9360 6040 9360 5970
Wire Wire Line
	9360 6040 10100 6040
Wire Wire Line
	10100 6040 10100 5420
Wire Wire Line
	10100 5420 10230 5420
Connection ~ 9360 6040
Wire Wire Line
	8970 5210 9360 5210
Wire Wire Line
	9360 5210 9360 5270
Wire Wire Line
	9360 5210 9590 5210
Wire Wire Line
	9590 5210 9590 5320
Wire Wire Line
	9590 5320 10230 5320
Connection ~ 9360 5210
Text Label 9660 6040 0    50   ~ 0
SCL_HIGH
Text Label 9700 5320 0    50   ~ 0
SDA_HIGH
Text Label 8150 2500 0    50   ~ 0
SDA_LOW
Wire Wire Line
	10160 5110 10160 5220
Wire Wire Line
	10160 5220 10230 5220
Wire Wire Line
	9670 5110 10160 5110
Wire Wire Line
	9590 5110 9670 5110
Connection ~ 9670 5110
$Comp
L Device:C C29
U 1 1 5E0134ED
P 9670 4960
F 0 "C29" H 9785 5006 50  0000 L CNN
F 1 "100nF" H 9785 4915 50  0000 L CNN
F 2 "Capacitor_SMD:C_0805_2012Metric" H 9708 4810 50  0001 C CNN
F 3 "~" H 9670 4960 50  0001 C CNN
	1    9670 4960
	1    0    0    -1  
$EndComp
Wire Wire Line
	9600 4810 9670 4810
Wire Wire Line
	9670 4810 10230 4810
Wire Wire Line
	10230 4810 10230 5120
Connection ~ 9670 4810
$Comp
L Device:Buzzer BZ1
U 1 1 5DE995BD
P 2250 1520
F 0 "BZ1" H 2402 1549 50  0000 L CNN
F 1 "Buzzer" H 2402 1458 50  0000 L CNN
F 2 "Buzzer_Beeper:Buzzer_12x9.5RM7.6" V 2225 1620 50  0001 C CNN
F 3 "~" V 2225 1620 50  0001 C CNN
	1    2250 1520
	1    0    0    -1  
$EndComp
$Comp
L Transistor_FET:2N7002 Q3
U 1 1 5DE9BD9C
P 2050 1920
F 0 "Q3" V 2280 1740 50  0000 C CNN
F 1 "2N7002" V 2280 1990 50  0000 C CNN
F 2 "Package_TO_SOT_SMD:SOT-23" H 2250 1845 50  0001 L CIN
F 3 "https://www.fairchildsemi.com/datasheets/2N/2N7002.pdf" H 2050 1920 50  0001 L CNN
	1    2050 1920
	1    0    0    -1  
$EndComp
Wire Wire Line
	6860 2900 7000 2900
$Comp
L Device:R R10
U 1 1 5DE9B6AA
P 2150 1180
F 0 "R10" V 2060 1100 50  0000 C CNN
F 1 "100" V 2060 1270 50  0000 C CNN
F 2 "Resistor_SMD:R_0805_2012Metric" V 2080 1180 50  0001 C CNN
F 3 "~" H 2150 1180 50  0001 C CNN
	1    2150 1180
	1    0    0    -1  
$EndComp
Text Label 7000 2900 0    50   ~ 0
Buzzer
Text Label 1370 1920 2    50   ~ 0
Buzzer
$Comp
L Device:R R9
U 1 1 5DEB9401
P 1620 1920
F 0 "R9" V 1530 1840 50  0000 C CNN
F 1 "100" V 1530 2010 50  0000 C CNN
F 2 "Resistor_SMD:R_0805_2012Metric" V 1550 1920 50  0001 C CNN
F 3 "~" H 1620 1920 50  0001 C CNN
	1    1620 1920
	0    1    1    0   
$EndComp
Wire Wire Line
	1470 1920 1450 1920
Wire Wire Line
	1770 1920 1850 1920
Wire Wire Line
	2150 1720 2150 1620
Wire Wire Line
	2150 1330 2150 1420
$Comp
L power:+5V #PWR032
U 1 1 5DEDAB83
P 2150 1000
F 0 "#PWR032" H 2150 850 50  0001 C CNN
F 1 "+5V" H 2165 1173 50  0000 C CNN
F 2 "" H 2150 1000 50  0001 C CNN
F 3 "" H 2150 1000 50  0001 C CNN
	1    2150 1000
	1    0    0    -1  
$EndComp
Wire Wire Line
	2150 1030 2150 1000
Wire Wire Line
	2150 2220 2150 2120
$Comp
L Device:R R8
U 1 1 5E2B5C5C
P 1450 2220
F 0 "R8" V 1360 2140 50  0000 C CNN
F 1 "4k7" V 1360 2310 50  0000 C CNN
F 2 "Resistor_SMD:R_0805_2012Metric" V 1380 2220 50  0001 C CNN
F 3 "~" H 1450 2220 50  0001 C CNN
	1    1450 2220
	-1   0    0    1   
$EndComp
Wire Wire Line
	1450 2070 1450 1920
Connection ~ 1450 1920
Wire Wire Line
	1450 1920 1370 1920
$Comp
L power:GND #PWR030
U 1 1 5E2BF8C4
P 1450 2420
F 0 "#PWR030" H 1450 2170 50  0001 C CNN
F 1 "GND" H 1455 2247 50  0000 C CNN
F 2 "" H 1450 2420 50  0001 C CNN
F 3 "" H 1450 2420 50  0001 C CNN
	1    1450 2420
	1    0    0    -1  
$EndComp
Wire Wire Line
	1450 2420 1450 2370
Wire Notes Line
	3310 470  3310 7790
Wire Notes Line
	470  2780 3320 2780
Text Label 7000 2700 0    50   ~ 0
Encoder_Button
Text Notes 750  820  0    101  ~ 20
Buzzer\n
Text Label 7000 2800 0    50   ~ 0
Encoder_A
Wire Wire Line
	6860 3000 7480 3000
Text HLabel 7300 2400 2    50   Input ~ 0
RX_ESP
Text HLabel 7300 2200 2    50   Output ~ 0
TX_ESP
Text HLabel 7300 2100 2    50   Input ~ 0
GPIO0
Text HLabel 5470 2100 0    50   Input ~ 0
RST
Wire Notes Line
	6970 6530 6970 4360
Wire Notes Line
	6970 4360 11220 4360
Text Notes 7220 4670 0    101  ~ 20
LCD
Text HLabel 8160 2370 2    50   BiDi ~ 0
SDA
Text HLabel 8170 2690 2    50   Output ~ 0
SCL
Wire Wire Line
	8170 2690 8080 2690
Wire Wire Line
	8080 2690 8080 2600
Connection ~ 8080 2600
Wire Wire Line
	8080 2600 8150 2600
Wire Wire Line
	8160 2370 8080 2370
Wire Wire Line
	8080 2370 8080 2500
Connection ~ 8080 2500
Wire Wire Line
	8080 2500 6860 2500
Wire Wire Line
	7300 2300 6860 2300
Text HLabel 7300 2300 2    50   Output ~ 0
RST_SI4735
$Comp
L Device:R_POT RV1
U 1 1 5FD90207
P 10220 1840
F 0 "RV1" H 10120 1950 50  0000 R CNN
F 1 "50k" H 10110 1780 50  0000 R CNN
F 2 "Potentiometer_THT:Potentiometer_Piher_T-16H_Single_Horizontal" H 10220 1840 50  0001 C CNN
F 3 "~" H 10220 1840 50  0001 C CNN
	1    10220 1840
	-1   0    0    -1  
$EndComp
Text Label 5550 2500 2    50   ~ 0
Poti_Input
Wire Wire Line
	5550 2500 5660 2500
Text Label 9980 1790 2    50   ~ 0
Poti_Input
$Comp
L Device:R R18
U 1 1 5FD980E0
P 10220 1430
F 0 "R18" H 10080 1350 50  0000 C CNN
F 1 "100k" H 10060 1520 50  0000 C CNN
F 2 "Resistor_SMD:R_0805_2012Metric" V 10150 1430 50  0001 C CNN
F 3 "~" H 10220 1430 50  0001 C CNN
	1    10220 1430
	-1   0    0    1   
$EndComp
Wire Wire Line
	10220 1690 10220 1630
$Comp
L power:+3.3V #PWR043
U 1 1 5FD9C05E
P 10220 1200
F 0 "#PWR043" H 10220 1050 50  0001 C CNN
F 1 "+3.3V" H 10210 1380 50  0000 C CNN
F 2 "" H 10220 1200 50  0001 C CNN
F 3 "" H 10220 1200 50  0001 C CNN
	1    10220 1200
	1    0    0    -1  
$EndComp
$Comp
L power:GND #PWR044
U 1 1 5FD9D2F2
P 10220 2060
F 0 "#PWR044" H 10220 1810 50  0001 C CNN
F 1 "GND" H 10225 1887 50  0000 C CNN
F 2 "" H 10220 2060 50  0001 C CNN
F 3 "" H 10220 2060 50  0001 C CNN
	1    10220 2060
	1    0    0    -1  
$EndComp
Text Notes 9260 850  0    101  ~ 20
Anlaog Input
Wire Wire Line
	10220 1280 10220 1200
$Comp
L Connector_Generic:Conn_01x03 J8
U 1 1 5FDB1213
P 9260 1840
F 0 "J8" H 9178 2065 50  0000 C CNN
F 1 "Conn_01x03" H 9178 2066 50  0001 C CNN
F 2 "Connector_JST:JST_PH_B3B-PH-K_1x03_P2.00mm_Vertical" H 9260 1840 50  0001 C CNN
F 3 "~" H 9260 1840 50  0001 C CNN
	1    9260 1840
	-1   0    0    -1  
$EndComp
Wire Wire Line
	9460 1740 9530 1740
Wire Wire Line
	9530 1740 9530 1630
Wire Wire Line
	9530 1630 10220 1630
Connection ~ 10220 1630
Wire Wire Line
	10220 1630 10220 1580
Wire Wire Line
	10070 1840 9980 1840
Wire Wire Line
	10220 2020 9530 2020
Wire Wire Line
	10220 1990 10220 2020
Connection ~ 10220 2020
Wire Wire Line
	10220 2020 10220 2060
Wire Wire Line
	9530 2020 9530 1940
Wire Wire Line
	9530 1940 9460 1940
Wire Wire Line
	9980 1790 9980 1840
Connection ~ 9980 1840
Wire Wire Line
	9980 1840 9460 1840
Wire Wire Line
	8180 5670 8180 5620
Wire Wire Line
	8010 5620 8180 5620
Connection ~ 8180 5620
Wire Wire Line
	8180 5620 8770 5620
$EndSCHEMATC
