EESchema Schematic File Version 4
EELAYER 30 0
EELAYER END
$Descr A4 11693 8268
encoding utf-8
Sheet 2 7
Title ""
Date ""
Rev ""
Comp ""
Comment1 ""
Comment2 ""
Comment3 ""
Comment4 ""
$EndDescr
$Comp
L arduradio:PAM8403 U2
U 1 1 5FD94475
P 5570 3830
F 0 "U2" H 5970 5245 50  0000 C CNN
F 1 "PAM8403" H 5970 5154 50  0000 C CNN
F 2 "Package_SO:SOP-16_4.55x10.3mm_P1.27mm" H 5570 3830 50  0001 C CNN
F 3 "" H 5570 3830 50  0001 C CNN
	1    5570 3830
	1    0    0    -1  
$EndComp
$Comp
L arduradio-rescue:GND-power #PWR012
U 1 1 5FD967F7
P 5370 2830
F 0 "#PWR012" H 5370 2580 50  0001 C CNN
F 1 "GND" V 5375 2702 50  0000 R CNN
F 2 "" H 5370 2830 50  0001 C CNN
F 3 "" H 5370 2830 50  0001 C CNN
	1    5370 2830
	0    1    1    0   
$EndComp
$Comp
L arduradio-rescue:GND-power #PWR014
U 1 1 5FD97339
P 6570 2830
F 0 "#PWR014" H 6570 2580 50  0001 C CNN
F 1 "GND" V 6575 2702 50  0000 R CNN
F 2 "" H 6570 2830 50  0001 C CNN
F 3 "" H 6570 2830 50  0001 C CNN
	1    6570 2830
	0    -1   -1   0   
$EndComp
$Comp
L arduradio-rescue:GND-power #PWR016
U 1 1 5FD97CFF
P 6570 3730
F 0 "#PWR016" H 6570 3480 50  0001 C CNN
F 1 "GND" V 6575 3602 50  0000 R CNN
F 2 "" H 6570 3730 50  0001 C CNN
F 3 "" H 6570 3730 50  0001 C CNN
	1    6570 3730
	0    -1   -1   0   
$EndComp
$Comp
L arduradio-rescue:GND-power #PWR015
U 1 1 5FD9832A
P 6570 3430
F 0 "#PWR015" H 6570 3180 50  0001 C CNN
F 1 "GND" V 6575 3302 50  0000 R CNN
F 2 "" H 6570 3430 50  0001 C CNN
F 3 "" H 6570 3430 50  0001 C CNN
	1    6570 3430
	0    -1   -1   0   
$EndComp
Wire Wire Line
	6470 3430 6570 3430
Wire Wire Line
	6470 3730 6570 3730
Wire Wire Line
	6470 2830 6570 2830
Wire Wire Line
	5470 2830 5370 2830
$Comp
L arduradio-rescue:C-Device C8
U 1 1 5FD98CFA
P 4420 4330
F 0 "C8" H 4535 4376 50  0000 L CNN
F 1 "1uF" H 4535 4285 50  0000 L CNN
F 2 "Capacitor_SMD:C_0805_2012Metric" H 4458 4180 50  0001 C CNN
F 3 "~" H 4420 4330 50  0001 C CNN
	1    4420 4330
	1    0    0    -1  
$EndComp
$Comp
L arduradio-rescue:R-Device R5
U 1 1 5FD9A713
P 4420 3930
F 0 "R5" H 4490 3976 50  0000 L CNN
F 1 "2k2" H 4490 3885 50  0000 L CNN
F 2 "Resistor_SMD:R_0805_2012Metric" V 4350 3930 50  0001 C CNN
F 3 "~" H 4420 3930 50  0001 C CNN
	1    4420 3930
	1    0    0    -1  
$EndComp
Wire Wire Line
	4420 4180 4420 4080
Wire Wire Line
	4420 3780 4420 3580
Wire Wire Line
	4420 3580 5470 3580
$Comp
L arduradio-rescue:C-Device C13
U 1 1 5FDA065B
P 7420 4380
F 0 "C13" H 7535 4426 50  0000 L CNN
F 1 "1uF" H 7535 4335 50  0000 L CNN
F 2 "Capacitor_SMD:C_0805_2012Metric" H 7458 4230 50  0001 C CNN
F 3 "~" H 7420 4380 50  0001 C CNN
	1    7420 4380
	1    0    0    -1  
$EndComp
$Comp
L arduradio-rescue:R-Device R6
U 1 1 5FDA0661
P 7420 3980
F 0 "R6" H 7490 4026 50  0000 L CNN
F 1 "2k2" H 7490 3935 50  0000 L CNN
F 2 "Resistor_SMD:R_0805_2012Metric" V 7350 3980 50  0001 C CNN
F 3 "~" H 7420 3980 50  0001 C CNN
	1    7420 3980
	1    0    0    -1  
$EndComp
Wire Wire Line
	7420 4230 7420 4130
Wire Wire Line
	6470 3580 7420 3580
Wire Wire Line
	7420 3580 7420 3830
Text HLabel 4420 4780 3    50   Input ~ 0
INL
Text HLabel 7420 4780 3    50   Input ~ 0
INR
Wire Wire Line
	7420 4530 7420 4780
Wire Wire Line
	4420 4480 4420 4780
$Comp
L arduradio-rescue:C-Device C15
U 1 1 5FDA26C1
P 7720 3230
F 0 "C15" H 7835 3276 50  0000 L CNN
F 1 "220pF" H 7835 3185 50  0000 L CNN
F 2 "Capacitor_SMD:C_0805_2012Metric" H 7758 3080 50  0001 C CNN
F 3 "~" H 7720 3230 50  0001 C CNN
	1    7720 3230
	1    0    0    -1  
$EndComp
$Comp
L arduradio-rescue:L-Device L6
U 1 1 5FDA3542
P 7220 2980
F 0 "L6" V 7140 3070 50  0000 C CNN
F 1 "3.9uH" V 7140 2880 50  0000 C CNN
F 2 "Inductor_SMD:L_0805_2012Metric" H 7220 2980 50  0001 C CNN
F 3 "~" H 7220 2980 50  0001 C CNN
	1    7220 2980
	0    -1   -1   0   
$EndComp
Wire Wire Line
	7370 2980 7720 2980
Wire Wire Line
	7720 3080 7720 2980
Connection ~ 7720 2980
Wire Wire Line
	7720 2980 8220 2980
$Comp
L arduradio-rescue:GND-power #PWR019
U 1 1 5FDA51F2
P 7720 3480
F 0 "#PWR019" H 7720 3230 50  0001 C CNN
F 1 "GND" H 7725 3307 50  0000 C CNN
F 2 "" H 7720 3480 50  0001 C CNN
F 3 "" H 7720 3480 50  0001 C CNN
	1    7720 3480
	1    0    0    -1  
$EndComp
Wire Wire Line
	7720 3380 7720 3480
$Comp
L arduradio-rescue:C-Device C6
U 1 1 5FDA9FDF
P 3930 2430
F 0 "C6" H 4045 2476 50  0000 L CNN
F 1 "220pF" H 4045 2385 50  0000 L CNN
F 2 "Capacitor_SMD:C_0805_2012Metric" H 3968 2280 50  0001 C CNN
F 3 "~" H 3930 2430 50  0001 C CNN
	1    3930 2430
	-1   0    0    1   
$EndComp
$Comp
L arduradio-rescue:L-Device L3
U 1 1 5FDA9FE5
P 4690 2680
F 0 "L3" V 4600 2770 50  0000 C CNN
F 1 "3.9uH" V 4600 2570 50  0000 C CNN
F 2 "Inductor_SMD:L_0805_2012Metric" H 4690 2680 50  0001 C CNN
F 3 "~" H 4690 2680 50  0001 C CNN
	1    4690 2680
	0    1    1    0   
$EndComp
Text HLabel 3570 2680 0    50   Output ~ 0
OUT_L_+
Wire Wire Line
	3930 2580 3930 2680
$Comp
L arduradio-rescue:GND-power #PWR09
U 1 1 5FDA9FF0
P 3930 2180
F 0 "#PWR09" H 3930 1930 50  0001 C CNN
F 1 "GND" H 3935 2007 50  0000 C CNN
F 2 "" H 3930 2180 50  0001 C CNN
F 3 "" H 3930 2180 50  0001 C CNN
	1    3930 2180
	-1   0    0    1   
$EndComp
Wire Wire Line
	3930 2280 3930 2180
Text HLabel 3570 2980 0    50   Output ~ 0
OUT_L_-
Wire Wire Line
	4840 2680 5470 2680
Wire Wire Line
	6470 3130 6870 3130
Wire Wire Line
	5470 3130 5120 3130
Wire Wire Line
	5120 3430 5470 3430
Text HLabel 5320 3280 0    50   Input ~ 0
MUTE
Text HLabel 6620 3280 2    50   Input ~ 0
SHDN
Wire Wire Line
	6620 3280 6470 3280
Wire Wire Line
	5320 3280 5470 3280
Wire Wire Line
	5270 4780 5570 4780
Wire Wire Line
	5570 4780 5570 4980
$Comp
L arduradio-rescue:C-Device C10
U 1 1 5FDAF230
P 5570 5130
F 0 "C10" H 5685 5176 50  0000 L CNN
F 1 "1uF" H 5685 5085 50  0000 L CNN
F 2 "Capacitor_SMD:C_0805_2012Metric" H 5608 4980 50  0001 C CNN
F 3 "~" H 5570 5130 50  0001 C CNN
	1    5570 5130
	1    0    0    -1  
$EndComp
$Comp
L arduradio-rescue:C-Device C11
U 1 1 5FDAF872
P 6020 5130
F 0 "C11" H 6135 5176 50  0000 L CNN
F 1 "10uF" H 6135 5085 50  0000 L CNN
F 2 "Capacitor_SMD:C_0805_2012Metric" H 6058 4980 50  0001 C CNN
F 3 "~" H 6020 5130 50  0001 C CNN
	1    6020 5130
	1    0    0    -1  
$EndComp
$Comp
L arduradio-rescue:GND-power #PWR013
U 1 1 5FDAFC5D
P 5570 5580
F 0 "#PWR013" H 5570 5330 50  0001 C CNN
F 1 "GND" H 5575 5407 50  0000 C CNN
F 2 "" H 5570 5580 50  0001 C CNN
F 3 "" H 5570 5580 50  0001 C CNN
	1    5570 5580
	1    0    0    -1  
$EndComp
Wire Wire Line
	5570 5280 5570 5480
Wire Wire Line
	5570 4780 6020 4780
Wire Wire Line
	6020 4780 6020 4980
Connection ~ 5570 4780
Wire Wire Line
	5570 5480 6020 5480
Wire Wire Line
	6020 5480 6020 5280
Connection ~ 5570 5480
Wire Wire Line
	5570 5480 5570 5580
Wire Wire Line
	6470 4780 6670 4780
Wire Wire Line
	6670 4780 6670 4980
$Comp
L arduradio-rescue:C-Device C12
U 1 1 5FDB3B38
P 6670 5130
F 0 "C12" H 6785 5176 50  0000 L CNN
F 1 "1uF" H 6785 5085 50  0000 L CNN
F 2 "Capacitor_SMD:C_0805_2012Metric" H 6708 4980 50  0001 C CNN
F 3 "~" H 6670 5130 50  0001 C CNN
	1    6670 5130
	1    0    0    -1  
$EndComp
$Comp
L arduradio-rescue:GND-power #PWR017
U 1 1 5FDB3B3E
P 6670 5580
F 0 "#PWR017" H 6670 5330 50  0001 C CNN
F 1 "GND" H 6675 5407 50  0000 C CNN
F 2 "" H 6670 5580 50  0001 C CNN
F 3 "" H 6670 5580 50  0001 C CNN
	1    6670 5580
	1    0    0    -1  
$EndComp
Wire Wire Line
	6670 5280 6670 5580
Text Label 5120 3130 0    50   ~ 0
PVDD
Text Label 5120 3430 0    50   ~ 0
VDD
Text Label 6870 3130 2    50   ~ 0
PVDD
Text Label 5270 4780 0    50   ~ 0
PVDD
Text Label 6470 4780 0    50   ~ 0
VDD
Text HLabel 3290 5330 0    50   Input ~ 0
Vin
Text Label 4370 5330 0    50   ~ 0
PVDD
Text Label 4370 5480 0    50   ~ 0
VDD
Wire Wire Line
	4370 5480 4070 5480
Wire Wire Line
	4070 5480 4070 5330
Wire Wire Line
	4070 5330 3720 5330
Wire Wire Line
	4070 5330 4370 5330
Connection ~ 4070 5330
$Comp
L arduradio-rescue:C-Device C9
U 1 1 5FDF6FA9
P 5130 3920
F 0 "C9" H 5245 3966 50  0000 L CNN
F 1 "100n" H 5245 3875 50  0000 L CNN
F 2 "Capacitor_SMD:C_0805_2012Metric" H 5168 3770 50  0001 C CNN
F 3 "~" H 5130 3920 50  0001 C CNN
	1    5130 3920
	1    0    0    -1  
$EndComp
Wire Wire Line
	5470 3730 5130 3730
Wire Wire Line
	5130 3730 5130 3770
$Comp
L arduradio-rescue:GND-power #PWR011
U 1 1 5FDF83F0
P 5130 4140
F 0 "#PWR011" H 5130 3890 50  0001 C CNN
F 1 "GND" H 5135 3967 50  0000 C CNN
F 2 "" H 5130 4140 50  0001 C CNN
F 3 "" H 5130 4140 50  0001 C CNN
	1    5130 4140
	1    0    0    -1  
$EndComp
Wire Wire Line
	5130 4140 5130 4070
Connection ~ 3930 2680
Wire Wire Line
	3930 2680 3570 2680
Wire Wire Line
	3930 2680 4540 2680
$Comp
L arduradio-rescue:C-Device C7
U 1 1 5FFE477C
P 3930 3230
F 0 "C7" H 4045 3276 50  0000 L CNN
F 1 "220pF" H 4045 3185 50  0000 L CNN
F 2 "Capacitor_SMD:C_0805_2012Metric" H 3968 3080 50  0001 C CNN
F 3 "~" H 3930 3230 50  0001 C CNN
	1    3930 3230
	-1   0    0    -1  
$EndComp
$Comp
L arduradio-rescue:L-Device L4
U 1 1 5FFE4782
P 4690 2980
F 0 "L4" V 4610 3080 50  0000 C CNN
F 1 "3.9uH" V 4610 2870 50  0000 C CNN
F 2 "Inductor_SMD:L_0805_2012Metric" H 4690 2980 50  0001 C CNN
F 3 "~" H 4690 2980 50  0001 C CNN
	1    4690 2980
	0    1    -1   0   
$EndComp
Wire Wire Line
	3930 3080 3930 2980
$Comp
L arduradio-rescue:GND-power #PWR010
U 1 1 5FFE4789
P 3930 3480
F 0 "#PWR010" H 3930 3230 50  0001 C CNN
F 1 "GND" H 3935 3307 50  0000 C CNN
F 2 "" H 3930 3480 50  0001 C CNN
F 3 "" H 3930 3480 50  0001 C CNN
	1    3930 3480
	-1   0    0    -1  
$EndComp
Wire Wire Line
	3930 3380 3930 3480
Connection ~ 3930 2980
Wire Wire Line
	3930 2980 3570 2980
Wire Wire Line
	3930 2980 4540 2980
Wire Wire Line
	4840 2980 5470 2980
$Comp
L arduradio-rescue:C-Device C14
U 1 1 5FFF6DF3
P 7710 2430
F 0 "C14" H 7825 2476 50  0000 L CNN
F 1 "220pF" H 7825 2385 50  0000 L CNN
F 2 "Capacitor_SMD:C_0805_2012Metric" H 7748 2280 50  0001 C CNN
F 3 "~" H 7710 2430 50  0001 C CNN
	1    7710 2430
	1    0    0    1   
$EndComp
$Comp
L arduradio-rescue:L-Device L5
U 1 1 5FFF6DF9
P 7210 2680
F 0 "L5" V 7110 2790 50  0000 C CNN
F 1 "3.9uH" V 7110 2600 50  0000 C CNN
F 2 "Inductor_SMD:L_0805_2012Metric" H 7210 2680 50  0001 C CNN
F 3 "~" H 7210 2680 50  0001 C CNN
	1    7210 2680
	0    -1   1    0   
$EndComp
Text HLabel 8210 2680 2    50   Output ~ 0
OUT_R_+
Wire Wire Line
	7360 2680 7710 2680
Wire Wire Line
	7710 2580 7710 2680
Connection ~ 7710 2680
Wire Wire Line
	7710 2680 8210 2680
$Comp
L arduradio-rescue:GND-power #PWR018
U 1 1 5FFF6E04
P 7710 2180
F 0 "#PWR018" H 7710 1930 50  0001 C CNN
F 1 "GND" H 7715 2007 50  0000 C CNN
F 2 "" H 7710 2180 50  0001 C CNN
F 3 "" H 7710 2180 50  0001 C CNN
	1    7710 2180
	1    0    0    1   
$EndComp
Wire Wire Line
	7710 2280 7710 2180
Text HLabel 8220 2980 2    50   Output ~ 0
OUT_R_-
Wire Wire Line
	6470 2980 7070 2980
Wire Wire Line
	6470 2680 7060 2680
$Comp
L arduradio-rescue:L-Device L2
U 1 1 603B2CB7
P 3570 5330
F 0 "L2" V 3480 5420 50  0000 C CNN
F 1 "3.9uH" V 3480 5220 50  0000 C CNN
F 2 "Inductor_SMD:L_0805_2012Metric" H 3570 5330 50  0001 C CNN
F 3 "~" H 3570 5330 50  0001 C CNN
	1    3570 5330
	0    -1   -1   0   
$EndComp
Wire Wire Line
	3290 5330 3420 5330
$EndSCHEMATC
