EESchema Schematic File Version 4
EELAYER 30 0
EELAYER END
$Descr A4 11693 8268
encoding utf-8
Sheet 3 5
Title ""
Date ""
Rev ""
Comp ""
Comment1 ""
Comment2 ""
Comment3 ""
Comment4 ""
$EndDescr
$Comp
L Device:Q_NPN_BEC Q1
U 1 1 5DA90BA7
P 1950 1690
F 0 "Q1" H 2141 1736 50  0000 L CNN
F 1 "Q_NPN_BEC" H 2141 1645 50  0000 L CNN
F 2 "Package_TO_SOT_SMD:SOT-23" H 2150 1790 50  0001 C CNN
F 3 "~" H 1950 1690 50  0001 C CNN
	1    1950 1690
	1    0    0    -1  
$EndComp
$Comp
L Device:Q_NPN_BEC Q2
U 1 1 5DA9373F
P 1950 2390
F 0 "Q2" H 2141 2344 50  0000 L CNN
F 1 "Q_NPN_BEC" H 2141 2435 50  0000 L CNN
F 2 "Package_TO_SOT_SMD:SOT-23" H 2150 2490 50  0001 C CNN
F 3 "~" H 1950 2390 50  0001 C CNN
	1    1950 2390
	1    0    0    1   
$EndComp
$Comp
L Device:R R2
U 1 1 5DA951F5
P 1340 1690
F 0 "R2" V 1250 1610 50  0000 C CNN
F 1 "12k" V 1250 1780 50  0000 C CNN
F 2 "Resistor_SMD:R_0805_2012Metric" V 1270 1690 50  0001 C CNN
F 3 "~" H 1340 1690 50  0001 C CNN
	1    1340 1690
	0    1    1    0   
$EndComp
$Comp
L Device:R R3
U 1 1 5DA9550A
P 1350 2390
F 0 "R3" V 1260 2310 50  0000 C CNN
F 1 "12k" V 1260 2480 50  0000 C CNN
F 2 "Resistor_SMD:R_0805_2012Metric" V 1280 2390 50  0001 C CNN
F 3 "~" H 1350 2390 50  0001 C CNN
	1    1350 2390
	0    1    1    0   
$EndComp
Wire Wire Line
	1490 1690 1750 1690
Wire Wire Line
	1200 2390 1040 2390
Wire Wire Line
	1750 2390 1500 2390
Wire Wire Line
	1110 1690 1110 2090
Wire Wire Line
	1110 2090 2050 2090
Wire Wire Line
	2050 2090 2050 2190
Wire Wire Line
	950  1690 1110 1690
Connection ~ 1110 1690
Wire Wire Line
	1110 1690 1190 1690
Wire Wire Line
	1040 2390 1040 1890
Wire Wire Line
	1040 1890 2050 1890
Connection ~ 1040 2390
Wire Wire Line
	2050 2590 2050 2690
Wire Wire Line
	2050 2690 2610 2690
Wire Wire Line
	2050 1390 2650 1390
Wire Wire Line
	2050 1390 2050 1490
Wire Notes Line
	3110 3470 470  3470
Text Notes 770  1000 0    101  ~ 20
ESP Reset Circuit
Wire Notes Line
	3120 5460 480  5460
Wire Notes Line
	3110 470  3110 7790
$Comp
L power:GND #PWR09
U 1 1 5DAFACA3
P 2030 6930
F 0 "#PWR09" H 2030 6680 50  0001 C CNN
F 1 "GND" H 2035 6757 50  0000 C CNN
F 2 "" H 2030 6930 50  0001 C CNN
F 3 "" H 2030 6930 50  0001 C CNN
	1    2030 6930
	1    0    0    -1  
$EndComp
Wire Wire Line
	1850 6860 2030 6860
Wire Wire Line
	2030 6860 2030 6930
Wire Wire Line
	1260 6370 1260 6440
Text Notes 810  5930 0    101  ~ 20
Manual Reset Switch
$Comp
L Switch:SW_Push SW1
U 1 1 5DB1800C
P 1650 6860
F 0 "SW1" H 1650 7145 50  0000 C CNN
F 1 "SW_Push" H 1650 7054 50  0000 C CNN
F 2 "Button_Switch_SMD:SW_SPST_SKQG_WithStem" H 1650 7060 50  0001 C CNN
F 3 "~" H 1650 7060 50  0001 C CNN
	1    1650 6860
	1    0    0    -1  
$EndComp
Wire Wire Line
	1450 6860 1440 6860
Wire Wire Line
	1260 6740 1260 6860
$Comp
L Device:R R1
U 1 1 5DAF49C7
P 1260 6590
F 0 "R1" V 1170 6510 50  0000 C CNN
F 1 "1k" V 1170 6680 50  0000 C CNN
F 2 "Resistor_SMD:R_0805_2012Metric" V 1190 6590 50  0001 C CNN
F 3 "~" H 1260 6590 50  0001 C CNN
	1    1260 6590
	-1   0    0    1   
$EndComp
$Comp
L power:GND #PWR011
U 1 1 5DD6DEA7
P 5800 4560
F 0 "#PWR011" H 5800 4310 50  0001 C CNN
F 1 "GND" H 5805 4387 50  0000 C CNN
F 2 "" H 5800 4560 50  0001 C CNN
F 3 "" H 5800 4560 50  0001 C CNN
	1    5800 4560
	1    0    0    -1  
$EndComp
Wire Wire Line
	5800 4560 5800 4530
$Comp
L power:GND #PWR013
U 1 1 5DD6EFFA
P 7540 4940
F 0 "#PWR013" H 7540 4690 50  0001 C CNN
F 1 "GND" H 7545 4767 50  0000 C CNN
F 2 "" H 7540 4940 50  0001 C CNN
F 3 "" H 7540 4940 50  0001 C CNN
	1    7540 4940
	1    0    0    -1  
$EndComp
Wire Wire Line
	770  2390 1040 2390
Wire Wire Line
	6100 4090 6630 4090
Wire Wire Line
	6630 4090 6630 3970
Wire Wire Line
	6630 3970 7140 3970
Wire Wire Line
	6100 4190 6750 4190
Wire Wire Line
	6750 4190 6750 4070
Wire Wire Line
	6750 4070 7140 4070
Text HLabel 2650 1390 2    50   Input ~ 0
RST
Text HLabel 2610 2690 2    50   Input ~ 0
GPIO0
Text Label 950  1690 2    50   ~ 0
DTR
Text Label 770  2390 2    50   ~ 0
RTS
Text Label 8190 4370 0    50   ~ 0
DTR
Text Label 8190 4470 0    50   ~ 0
RTS
Wire Wire Line
	7940 4370 8190 4370
Wire Wire Line
	7940 4470 8190 4470
Text HLabel 1260 6370 1    50   Input ~ 0
RST
$Comp
L Device:Crystal Y2
U 1 1 5DDB3FB8
P 1500 4560
F 0 "Y2" H 1500 4828 50  0000 C CNN
F 1 "Crystal" H 1500 4737 50  0000 C CNN
F 2 "Crystal:Crystal_SMD_HC49-SD" H 1500 4560 50  0001 C CNN
F 3 "~" H 1500 4560 50  0001 C CNN
	1    1500 4560
	1    0    0    -1  
$EndComp
$Comp
L Device:C C?
U 1 1 5DDB5DAD
P 1190 4830
AR Path="/5DDB5DAD" Ref="C?"  Part="1" 
AR Path="/5DA7086F/5DDB5DAD" Ref="C?"  Part="1" 
AR Path="/5DE868BC/5DDB5DAD" Ref="C?"  Part="1" 
AR Path="/5FDB8EF8/5DE868BC/5DDB5DAD" Ref="C?"  Part="1" 
AR Path="/5FF15172/5DDB5DAD" Ref="C7"  Part="1" 
F 0 "C7" H 1368 4876 50  0000 L CNN
F 1 "22pF" H 1368 4785 50  0000 L CNN
F 2 "Capacitor_SMD:C_0805_2012Metric" H 1190 4830 50  0001 C CNN
F 3 "~" H 1190 4830 50  0001 C CNN
	1    1190 4830
	1    0    0    -1  
$EndComp
$Comp
L Device:C C?
U 1 1 5DDB5DB3
P 1770 4830
AR Path="/5DDB5DB3" Ref="C?"  Part="1" 
AR Path="/5DA7086F/5DDB5DB3" Ref="C?"  Part="1" 
AR Path="/5DE868BC/5DDB5DB3" Ref="C?"  Part="1" 
AR Path="/5FDB8EF8/5DE868BC/5DDB5DB3" Ref="C?"  Part="1" 
AR Path="/5FF15172/5DDB5DB3" Ref="C8"  Part="1" 
F 0 "C8" H 1948 4876 50  0000 L CNN
F 1 "22pF" H 1948 4785 50  0000 L CNN
F 2 "Capacitor_SMD:C_0805_2012Metric" H 1770 4830 50  0001 C CNN
F 3 "~" H 1770 4830 50  0001 C CNN
	1    1770 4830
	1    0    0    -1  
$EndComp
$Comp
L power:GND #PWR07
U 1 1 5DDB6715
P 1190 4980
F 0 "#PWR07" H 1190 4730 50  0001 C CNN
F 1 "GND" H 1195 4807 50  0000 C CNN
F 2 "" H 1190 4980 50  0001 C CNN
F 3 "" H 1190 4980 50  0001 C CNN
	1    1190 4980
	1    0    0    -1  
$EndComp
$Comp
L power:GND #PWR08
U 1 1 5DDB6FFF
P 1770 4980
F 0 "#PWR08" H 1770 4730 50  0001 C CNN
F 1 "GND" H 1775 4807 50  0000 C CNN
F 2 "" H 1770 4980 50  0001 C CNN
F 3 "" H 1770 4980 50  0001 C CNN
	1    1770 4980
	1    0    0    -1  
$EndComp
Wire Wire Line
	1770 4680 1770 4560
Wire Wire Line
	1770 4560 1650 4560
Wire Wire Line
	1190 4680 1190 4560
Wire Wire Line
	1190 4560 1350 4560
Wire Wire Line
	1770 4560 1770 4300
Wire Wire Line
	1770 4300 2590 4300
Connection ~ 1770 4560
Wire Wire Line
	1190 4560 1190 4140
Wire Wire Line
	1190 4140 2590 4140
Connection ~ 1190 4560
Text Label 2590 4140 0    50   ~ 0
XI
Text Label 2590 4300 0    50   ~ 0
XO
Text Label 6960 4270 2    50   ~ 0
XI
Wire Wire Line
	7140 4270 6960 4270
Wire Wire Line
	7140 4470 6960 4470
Text Label 6960 4470 2    50   ~ 0
XO
Text Notes 750  3810 0    101  ~ 20
Crystal Oscillator
NoConn ~ 7940 3970
NoConn ~ 7940 4070
NoConn ~ 7940 4170
NoConn ~ 7940 4270
Wire Wire Line
	7540 4940 7540 4670
$Comp
L Interface_USB:CH340G U3
U 1 1 5DEBC833
P 7540 4070
F 0 "U3" H 7300 3460 50  0000 C CNN
F 1 "CH340G" H 7770 3470 50  0000 C CNN
F 2 "Package_SO:SOIC-16_3.9x9.9mm_P1.27mm" H 7590 3520 50  0001 L CNN
F 3 "http://www.datasheet5.com/pdf-local-2195953" H 7190 4870 50  0001 C CNN
	1    7540 4070
	1    0    0    -1  
$EndComp
NoConn ~ 7140 3770
$Comp
L Device:R R4
U 1 1 5DDCF722
P 8490 3670
F 0 "R4" V 8400 3590 50  0000 C CNN
F 1 "470" V 8400 3760 50  0000 C CNN
F 2 "Resistor_SMD:R_0805_2012Metric" V 8420 3670 50  0001 C CNN
F 3 "~" H 8490 3670 50  0001 C CNN
	1    8490 3670
	0    1    1    0   
$EndComp
$Comp
L Device:R R5
U 1 1 5DDD0556
P 8490 3770
F 0 "R5" V 8400 3690 50  0000 C CNN
F 1 "470" V 8400 3860 50  0000 C CNN
F 2 "Resistor_SMD:R_0805_2012Metric" V 8420 3770 50  0001 C CNN
F 3 "~" H 8490 3770 50  0001 C CNN
	1    8490 3770
	0    -1   -1   0   
$EndComp
Text HLabel 8850 3670 2    50   Input ~ 0
TXD
Text HLabel 8850 3770 2    50   Input ~ 0
RXD
Wire Wire Line
	8640 3670 8850 3670
Wire Wire Line
	8640 3770 8850 3770
NoConn ~ 6100 4290
$Comp
L Device:C C?
U 1 1 5DD81F92
P 8440 2510
AR Path="/5DD81F92" Ref="C?"  Part="1" 
AR Path="/5DA7086F/5DD81F92" Ref="C?"  Part="1" 
AR Path="/5DE868BC/5DD81F92" Ref="C?"  Part="1" 
AR Path="/5FDB8EF8/5DE868BC/5DD81F92" Ref="C?"  Part="1" 
AR Path="/5FF15172/5DD81F92" Ref="C14"  Part="1" 
F 0 "C14" H 8540 2560 50  0000 L CNN
F 1 "10uF" H 8540 2460 50  0000 L CNN
F 2 "Capacitor_SMD:C_0805_2012Metric" H 8440 2510 50  0001 C CNN
F 3 "~" H 8440 2510 50  0001 C CNN
	1    8440 2510
	1    0    0    -1  
$EndComp
$Comp
L Device:C C?
U 1 1 5DD81F8C
P 6840 2510
AR Path="/5DD81F8C" Ref="C?"  Part="1" 
AR Path="/5DA7086F/5DD81F8C" Ref="C?"  Part="1" 
AR Path="/5DE868BC/5DD81F8C" Ref="C?"  Part="1" 
AR Path="/5FDB8EF8/5DE868BC/5DD81F8C" Ref="C?"  Part="1" 
AR Path="/5FF15172/5DD81F8C" Ref="C10"  Part="1" 
F 0 "C10" H 7018 2556 50  0000 L CNN
F 1 "100nF" H 7018 2465 50  0000 L CNN
F 2 "Capacitor_SMD:C_0805_2012Metric" H 6840 2510 50  0001 C CNN
F 3 "~" H 6840 2510 50  0001 C CNN
	1    6840 2510
	1    0    0    -1  
$EndComp
$Comp
L power:GND #PWR012
U 1 1 5DD8AA62
P 6840 2740
F 0 "#PWR012" H 6840 2490 50  0001 C CNN
F 1 "GND" H 6845 2567 50  0000 C CNN
F 2 "" H 6840 2740 50  0001 C CNN
F 3 "" H 6840 2740 50  0001 C CNN
	1    6840 2740
	1    0    0    -1  
$EndComp
Wire Wire Line
	8440 2310 8440 2360
Wire Wire Line
	7990 2360 7990 2310
Wire Wire Line
	7990 2310 8440 2310
Wire Wire Line
	6840 2360 6840 2310
Wire Wire Line
	6840 2660 6840 2740
Wire Wire Line
	7990 2740 7990 2660
Wire Wire Line
	7990 2740 8440 2740
Wire Wire Line
	8440 2740 8440 2660
Connection ~ 7990 2740
Connection ~ 6840 2740
Wire Wire Line
	8440 2310 8880 2310
Wire Wire Line
	7540 3390 7540 3470
Connection ~ 8440 2310
Wire Wire Line
	7540 3390 7440 3390
Wire Wire Line
	7440 3390 7440 3470
Connection ~ 7540 3390
Wire Wire Line
	8880 2310 8880 3390
$Comp
L Device:C C?
U 1 1 5DE218A1
P 7540 3140
AR Path="/5DE218A1" Ref="C?"  Part="1" 
AR Path="/5DA7086F/5DE218A1" Ref="C?"  Part="1" 
AR Path="/5DE868BC/5DE218A1" Ref="C?"  Part="1" 
AR Path="/5FDB8EF8/5DE868BC/5DE218A1" Ref="C?"  Part="1" 
AR Path="/5FF15172/5DE218A1" Ref="C11"  Part="1" 
F 0 "C11" H 7640 3190 50  0000 L CNN
F 1 "10uF" H 7640 3090 50  0000 L CNN
F 2 "Capacitor_SMD:C_0805_2012Metric" H 7540 3140 50  0001 C CNN
F 3 "~" H 7540 3140 50  0001 C CNN
	1    7540 3140
	-1   0    0    1   
$EndComp
$Comp
L Device:C C?
U 1 1 5DE218A7
P 7990 3140
AR Path="/5DE218A7" Ref="C?"  Part="1" 
AR Path="/5DA7086F/5DE218A7" Ref="C?"  Part="1" 
AR Path="/5DE868BC/5DE218A7" Ref="C?"  Part="1" 
AR Path="/5FDB8EF8/5DE868BC/5DE218A7" Ref="C?"  Part="1" 
AR Path="/5FF15172/5DE218A7" Ref="C13"  Part="1" 
F 0 "C13" H 8090 3190 50  0000 L CNN
F 1 "100nF" H 8090 3090 50  0000 L CNN
F 2 "Capacitor_SMD:C_0805_2012Metric" H 7990 3140 50  0001 C CNN
F 3 "~" H 7990 3140 50  0001 C CNN
	1    7990 3140
	-1   0    0    1   
$EndComp
Wire Wire Line
	7540 3390 7540 3290
Wire Wire Line
	7540 2990 7540 2740
Connection ~ 7540 2740
Wire Wire Line
	7540 2740 7990 2740
Wire Wire Line
	8880 3390 7990 3390
Wire Wire Line
	7990 2990 7990 2740
Wire Wire Line
	7990 3290 7990 3390
Connection ~ 7990 3390
Wire Wire Line
	7990 3390 7540 3390
$Comp
L power:+3.3V #PWR014
U 1 1 5DE38E4E
P 8880 2310
F 0 "#PWR014" H 8880 2160 50  0001 C CNN
F 1 "+3.3V" H 8895 2483 50  0000 C CNN
F 2 "" H 8880 2310 50  0001 C CNN
F 3 "" H 8880 2310 50  0001 C CNN
	1    8880 2310
	1    0    0    -1  
$EndComp
Connection ~ 8880 2310
$Comp
L Device:C C?
U 1 1 5DE3F185
P 6150 2520
AR Path="/5DE3F185" Ref="C?"  Part="1" 
AR Path="/5DA7086F/5DE3F185" Ref="C?"  Part="1" 
AR Path="/5DE868BC/5DE3F185" Ref="C?"  Part="1" 
AR Path="/5FDB8EF8/5DE868BC/5DE3F185" Ref="C?"  Part="1" 
AR Path="/5FF15172/5DE3F185" Ref="C9"  Part="1" 
F 0 "C9" H 6250 2570 50  0000 L CNN
F 1 "10uF" H 6250 2470 50  0000 L CNN
F 2 "Capacitor_SMD:C_0805_2012Metric" H 6150 2520 50  0001 C CNN
F 3 "~" H 6150 2520 50  0001 C CNN
	1    6150 2520
	1    0    0    -1  
$EndComp
Wire Wire Line
	6150 2370 6150 2310
Wire Wire Line
	6840 2740 6150 2740
Wire Wire Line
	6150 2740 6150 2670
Wire Wire Line
	6150 2310 6840 2310
Wire Wire Line
	6150 2310 5640 2310
Wire Wire Line
	5640 2310 5640 3280
Wire Wire Line
	5640 3280 6470 3280
Wire Wire Line
	6470 3280 6470 3890
Connection ~ 6150 2310
Wire Wire Line
	6840 2740 7540 2740
$Comp
L Device:C C?
U 1 1 5DD8E842
P 7990 2510
AR Path="/5DD8E842" Ref="C?"  Part="1" 
AR Path="/5DA7086F/5DD8E842" Ref="C?"  Part="1" 
AR Path="/5DE868BC/5DD8E842" Ref="C?"  Part="1" 
AR Path="/5FDB8EF8/5DE868BC/5DD8E842" Ref="C?"  Part="1" 
AR Path="/5FF15172/5DD8E842" Ref="C12"  Part="1" 
F 0 "C12" H 8090 2560 50  0000 L CNN
F 1 "100nF" H 8090 2460 50  0000 L CNN
F 2 "Capacitor_SMD:C_0805_2012Metric" H 7990 2510 50  0001 C CNN
F 3 "~" H 7990 2510 50  0001 C CNN
	1    7990 2510
	1    0    0    -1  
$EndComp
$Comp
L Regulator_Linear:LM1117-3.3 U2
U 1 1 5DDEE4EC
P 7540 2310
F 0 "U2" H 7540 2552 50  0000 C CNN
F 1 "LM1117-3.3" H 7540 2461 50  0000 C CNN
F 2 "Package_TO_SOT_SMD:SOT-223-3_TabPin2" H 7540 2310 50  0001 C CNN
F 3 "http://www.ti.com/lit/ds/symlink/lm1117.pdf" H 7540 2310 50  0001 C CNN
	1    7540 2310
	1    0    0    -1  
$EndComp
Wire Wire Line
	7240 2310 6840 2310
Connection ~ 6840 2310
Wire Wire Line
	7840 2310 7990 2310
Connection ~ 7990 2310
Wire Wire Line
	7540 2610 7540 2740
$Comp
L power:+5V #PWR010
U 1 1 5DE768E0
P 5640 2310
F 0 "#PWR010" H 5640 2160 50  0001 C CNN
F 1 "+5V" H 5655 2483 50  0000 C CNN
F 2 "" H 5640 2310 50  0001 C CNN
F 3 "" H 5640 2310 50  0001 C CNN
	1    5640 2310
	1    0    0    -1  
$EndComp
Connection ~ 5640 2310
$Comp
L Connector_Generic:Conn_01x02 J?
U 1 1 5E0B8A51
P 1610 7240
AR Path="/5E0B8A51" Ref="J?"  Part="1" 
AR Path="/5DE868BC/5E0B8A51" Ref="J?"  Part="1" 
AR Path="/5FDB8EF8/5DE868BC/5E0B8A51" Ref="J?"  Part="1" 
AR Path="/5FF15172/5E0B8A51" Ref="J5"  Part="1" 
F 0 "J5" V 1570 6900 50  0000 L CNN
F 1 "Reset_ext" V 1650 6670 50  0000 L CNN
F 2 "Connector_JST:JST_PH_B2B-PH-K_1x02_P2.00mm_Vertical" H 1610 7240 50  0001 C CNN
F 3 "~" H 1610 7240 50  0001 C CNN
	1    1610 7240
	0    -1   1    0   
$EndComp
Wire Wire Line
	1610 7040 1610 6950
Wire Wire Line
	1610 6950 1440 6950
Wire Wire Line
	1440 6950 1440 6860
Connection ~ 1440 6860
Wire Wire Line
	1440 6860 1260 6860
Wire Wire Line
	1710 7040 1710 6950
Wire Wire Line
	1710 6950 1850 6950
Wire Wire Line
	1850 6950 1850 6860
Connection ~ 1850 6860
Text Label 7960 3670 0    50   ~ 0
TX_USB
Text Label 7950 3770 0    50   ~ 0
RX_USB
Wire Wire Line
	7940 3670 8340 3670
Wire Wire Line
	7940 3770 8340 3770
Wire Wire Line
	6100 3890 6470 3890
Wire Wire Line
	5700 4490 5700 4530
Wire Wire Line
	5700 4530 5800 4530
$Comp
L Connector:USB_B_Micro J6
U 1 1 5DEBCFF0
P 5800 4090
F 0 "J6" H 5857 4557 50  0000 C CNN
F 1 "USB_B_Micro" H 5857 4466 50  0000 C CNN
F 2 "Connector_USB:USB_Micro-B_GCT_USB3076-30-A" H 5950 4040 50  0001 C CNN
F 3 "~" H 5950 4040 50  0001 C CNN
	1    5800 4090
	1    0    0    -1  
$EndComp
Wire Wire Line
	5800 4490 5800 4530
Connection ~ 5800 4530
$EndSCHEMATC
