G04 #@! TF.GenerationSoftware,KiCad,Pcbnew,(5.1.5)-3*
G04 #@! TF.CreationDate,2021-07-29T12:19:05+02:00*
G04 #@! TF.ProjectId,arduradio,61726475-7261-4646-996f-2e6b69636164,rev?*
G04 #@! TF.SameCoordinates,Original*
G04 #@! TF.FileFunction,Legend,Bot*
G04 #@! TF.FilePolarity,Positive*
%FSLAX46Y46*%
G04 Gerber Fmt 4.6, Leading zero omitted, Abs format (unit mm)*
G04 Created by KiCad (PCBNEW (5.1.5)-3) date 2021-07-29 12:19:05*
%MOMM*%
%LPD*%
G04 APERTURE LIST*
%ADD10C,0.300000*%
%ADD11C,0.120000*%
%ADD12C,0.150000*%
G04 APERTURE END LIST*
D10*
X82556160Y-28735068D02*
X82556160Y-29449354D01*
X82984731Y-28592211D02*
X81484731Y-29092211D01*
X82984731Y-29592211D01*
X82984731Y-30092211D02*
X81484731Y-30092211D01*
X82556160Y-30592211D01*
X81484731Y-31092211D01*
X82984731Y-31092211D01*
X83127588Y-31449354D02*
X83127588Y-32592211D01*
X82984731Y-32949354D02*
X81484731Y-32949354D01*
X82984731Y-33663640D02*
X81484731Y-33663640D01*
X82984731Y-34520782D01*
X81484731Y-34520782D01*
X98566777Y-29202357D02*
X98566777Y-28702357D01*
X99352491Y-28702357D02*
X97852491Y-28702357D01*
X97852491Y-29416642D01*
X99352491Y-29988071D02*
X97852491Y-29988071D01*
X98923920Y-30488071D01*
X97852491Y-30988071D01*
X99352491Y-30988071D01*
X99495348Y-31345214D02*
X99495348Y-32488071D01*
X99352491Y-32845214D02*
X97852491Y-32845214D01*
X99352491Y-33559500D02*
X97852491Y-33559500D01*
X99352491Y-34416642D01*
X97852491Y-34416642D01*
D11*
X144457922Y-41327000D02*
X144975078Y-41327000D01*
X144457922Y-42747000D02*
X144975078Y-42747000D01*
X148077422Y-41327000D02*
X148594578Y-41327000D01*
X148077422Y-42747000D02*
X148594578Y-42747000D01*
X69696064Y-79783000D02*
X69241936Y-79783000D01*
X69696064Y-81253000D02*
X69241936Y-81253000D01*
X69696064Y-75846000D02*
X69241936Y-75846000D01*
X69696064Y-77316000D02*
X69241936Y-77316000D01*
X111542900Y-51874922D02*
X111542900Y-52392078D01*
X110122900Y-51874922D02*
X110122900Y-52392078D01*
X119123000Y-43515000D02*
X119123000Y-44115000D01*
X121223000Y-42815000D02*
X119823000Y-42815000D01*
X121923000Y-44115000D02*
X121923000Y-43515000D01*
X119823000Y-44815000D02*
X121223000Y-44815000D01*
X119123000Y-44115000D02*
G75*
G03X119823000Y-44815000I700000J0D01*
G01*
X119823000Y-42815000D02*
G75*
G03X119123000Y-43515000I0J-700000D01*
G01*
X121923000Y-43515000D02*
G75*
G03X121223000Y-42815000I-700000J0D01*
G01*
X121223000Y-44815000D02*
G75*
G03X121923000Y-44115000I0J700000D01*
G01*
X112739436Y-41502000D02*
X113193564Y-41502000D01*
X112739436Y-40032000D02*
X113193564Y-40032000D01*
X116980064Y-40032000D02*
X116525936Y-40032000D01*
X116980064Y-41502000D02*
X116525936Y-41502000D01*
X94546052Y-105691000D02*
X94023548Y-105691000D01*
X94546052Y-107161000D02*
X94023548Y-107161000D01*
X94546052Y-101627000D02*
X94023548Y-101627000D01*
X94546052Y-103097000D02*
X94023548Y-103097000D01*
X94546052Y-99544200D02*
X94023548Y-99544200D01*
X94546052Y-101014200D02*
X94023548Y-101014200D01*
X94546052Y-97512200D02*
X94023548Y-97512200D01*
X94546052Y-98982200D02*
X94023548Y-98982200D01*
X94546052Y-95480200D02*
X94023548Y-95480200D01*
X94546052Y-96950200D02*
X94023548Y-96950200D01*
X94546052Y-93448200D02*
X94023548Y-93448200D01*
X94546052Y-94918200D02*
X94023548Y-94918200D01*
X94546052Y-91416200D02*
X94023548Y-91416200D01*
X94546052Y-92886200D02*
X94023548Y-92886200D01*
X94546052Y-103659000D02*
X94023548Y-103659000D01*
X94546052Y-105129000D02*
X94023548Y-105129000D01*
X93266000Y-78122000D02*
X171266000Y-78122000D01*
X171266000Y-78122000D02*
X171266000Y-58022000D01*
X171266000Y-58022000D02*
X93266000Y-58022000D01*
X93266000Y-58022000D02*
X93266000Y-78122000D01*
X111581000Y-55380122D02*
X111581000Y-55897278D01*
X110161000Y-55380122D02*
X110161000Y-55897278D01*
X97565137Y-53725783D02*
G75*
G03X97564856Y-55626000I732863J-950217D01*
G01*
X99030863Y-53725783D02*
G75*
G02X99031144Y-55626000I-732863J-950217D01*
G01*
X120416200Y-51574600D02*
X133016200Y-51574600D01*
X120416200Y-56674600D02*
X120416200Y-51574600D01*
X133016200Y-56674600D02*
X120416200Y-56674600D01*
X130633400Y-50599078D02*
X130633400Y-50081922D01*
X132053400Y-50599078D02*
X132053400Y-50081922D01*
X122165878Y-51116300D02*
X121648722Y-51116300D01*
X122165878Y-49696300D02*
X121648722Y-49696300D01*
X97063822Y-51245700D02*
X97580978Y-51245700D01*
X97063822Y-52665700D02*
X97580978Y-52665700D01*
X102186478Y-56310600D02*
X101669322Y-56310600D01*
X102186478Y-54890600D02*
X101669322Y-54890600D01*
D12*
X144883166Y-44394380D02*
X145216500Y-43918190D01*
X145454595Y-44394380D02*
X145454595Y-43394380D01*
X145073642Y-43394380D01*
X144978404Y-43442000D01*
X144930785Y-43489619D01*
X144883166Y-43584857D01*
X144883166Y-43727714D01*
X144930785Y-43822952D01*
X144978404Y-43870571D01*
X145073642Y-43918190D01*
X145454595Y-43918190D01*
X144549833Y-43394380D02*
X143930785Y-43394380D01*
X144264119Y-43775333D01*
X144121261Y-43775333D01*
X144026023Y-43822952D01*
X143978404Y-43870571D01*
X143930785Y-43965809D01*
X143930785Y-44203904D01*
X143978404Y-44299142D01*
X144026023Y-44346761D01*
X144121261Y-44394380D01*
X144406976Y-44394380D01*
X144502214Y-44346761D01*
X144549833Y-44299142D01*
X148502666Y-44267380D02*
X148836000Y-43791190D01*
X149074095Y-44267380D02*
X149074095Y-43267380D01*
X148693142Y-43267380D01*
X148597904Y-43315000D01*
X148550285Y-43362619D01*
X148502666Y-43457857D01*
X148502666Y-43600714D01*
X148550285Y-43695952D01*
X148597904Y-43743571D01*
X148693142Y-43791190D01*
X149074095Y-43791190D01*
X148121714Y-43362619D02*
X148074095Y-43315000D01*
X147978857Y-43267380D01*
X147740761Y-43267380D01*
X147645523Y-43315000D01*
X147597904Y-43362619D01*
X147550285Y-43457857D01*
X147550285Y-43553095D01*
X147597904Y-43695952D01*
X148169333Y-44267380D01*
X147550285Y-44267380D01*
X70111857Y-79320380D02*
X70445190Y-78844190D01*
X70683285Y-79320380D02*
X70683285Y-78320380D01*
X70302333Y-78320380D01*
X70207095Y-78368000D01*
X70159476Y-78415619D01*
X70111857Y-78510857D01*
X70111857Y-78653714D01*
X70159476Y-78748952D01*
X70207095Y-78796571D01*
X70302333Y-78844190D01*
X70683285Y-78844190D01*
X69778523Y-78320380D02*
X69159476Y-78320380D01*
X69492809Y-78701333D01*
X69349952Y-78701333D01*
X69254714Y-78748952D01*
X69207095Y-78796571D01*
X69159476Y-78891809D01*
X69159476Y-79129904D01*
X69207095Y-79225142D01*
X69254714Y-79272761D01*
X69349952Y-79320380D01*
X69635666Y-79320380D01*
X69730904Y-79272761D01*
X69778523Y-79225142D01*
X68683285Y-79320380D02*
X68492809Y-79320380D01*
X68397571Y-79272761D01*
X68349952Y-79225142D01*
X68254714Y-79082285D01*
X68207095Y-78891809D01*
X68207095Y-78510857D01*
X68254714Y-78415619D01*
X68302333Y-78368000D01*
X68397571Y-78320380D01*
X68588047Y-78320380D01*
X68683285Y-78368000D01*
X68730904Y-78415619D01*
X68778523Y-78510857D01*
X68778523Y-78748952D01*
X68730904Y-78844190D01*
X68683285Y-78891809D01*
X68588047Y-78939428D01*
X68397571Y-78939428D01*
X68302333Y-78891809D01*
X68254714Y-78844190D01*
X68207095Y-78748952D01*
X70111857Y-75383380D02*
X70445190Y-74907190D01*
X70683285Y-75383380D02*
X70683285Y-74383380D01*
X70302333Y-74383380D01*
X70207095Y-74431000D01*
X70159476Y-74478619D01*
X70111857Y-74573857D01*
X70111857Y-74716714D01*
X70159476Y-74811952D01*
X70207095Y-74859571D01*
X70302333Y-74907190D01*
X70683285Y-74907190D01*
X69254714Y-74716714D02*
X69254714Y-75383380D01*
X69492809Y-74335761D02*
X69730904Y-75050047D01*
X69111857Y-75050047D01*
X68540428Y-74383380D02*
X68445190Y-74383380D01*
X68349952Y-74431000D01*
X68302333Y-74478619D01*
X68254714Y-74573857D01*
X68207095Y-74764333D01*
X68207095Y-75002428D01*
X68254714Y-75192904D01*
X68302333Y-75288142D01*
X68349952Y-75335761D01*
X68445190Y-75383380D01*
X68540428Y-75383380D01*
X68635666Y-75335761D01*
X68683285Y-75288142D01*
X68730904Y-75192904D01*
X68778523Y-75002428D01*
X68778523Y-74764333D01*
X68730904Y-74573857D01*
X68683285Y-74478619D01*
X68635666Y-74431000D01*
X68540428Y-74383380D01*
X109635280Y-51490642D02*
X109159090Y-51157309D01*
X109635280Y-50919214D02*
X108635280Y-50919214D01*
X108635280Y-51300166D01*
X108682900Y-51395404D01*
X108730519Y-51443023D01*
X108825757Y-51490642D01*
X108968614Y-51490642D01*
X109063852Y-51443023D01*
X109111471Y-51395404D01*
X109159090Y-51300166D01*
X109159090Y-50919214D01*
X108730519Y-51871595D02*
X108682900Y-51919214D01*
X108635280Y-52014452D01*
X108635280Y-52252547D01*
X108682900Y-52347785D01*
X108730519Y-52395404D01*
X108825757Y-52443023D01*
X108920995Y-52443023D01*
X109063852Y-52395404D01*
X109635280Y-51823976D01*
X109635280Y-52443023D01*
X108635280Y-52776357D02*
X108635280Y-53395404D01*
X109016233Y-53062071D01*
X109016233Y-53204928D01*
X109063852Y-53300166D01*
X109111471Y-53347785D01*
X109206709Y-53395404D01*
X109444804Y-53395404D01*
X109540042Y-53347785D01*
X109587661Y-53300166D01*
X109635280Y-53204928D01*
X109635280Y-52919214D01*
X109587661Y-52823976D01*
X109540042Y-52776357D01*
X121356333Y-45067380D02*
X121356333Y-45781666D01*
X121403952Y-45924523D01*
X121499190Y-46019761D01*
X121642047Y-46067380D01*
X121737285Y-46067380D01*
X120880142Y-46067380D02*
X120880142Y-45067380D01*
X120499190Y-45067380D01*
X120403952Y-45115000D01*
X120356333Y-45162619D01*
X120308714Y-45257857D01*
X120308714Y-45400714D01*
X120356333Y-45495952D01*
X120403952Y-45543571D01*
X120499190Y-45591190D01*
X120880142Y-45591190D01*
X119403952Y-45067380D02*
X119880142Y-45067380D01*
X119927761Y-45543571D01*
X119880142Y-45495952D01*
X119784904Y-45448333D01*
X119546809Y-45448333D01*
X119451571Y-45495952D01*
X119403952Y-45543571D01*
X119356333Y-45638809D01*
X119356333Y-45876904D01*
X119403952Y-45972142D01*
X119451571Y-46019761D01*
X119546809Y-46067380D01*
X119784904Y-46067380D01*
X119880142Y-46019761D01*
X119927761Y-45972142D01*
X113657617Y-39532820D02*
X113990950Y-39056630D01*
X114229045Y-39532820D02*
X114229045Y-38532820D01*
X113848093Y-38532820D01*
X113752855Y-38580440D01*
X113705236Y-38628059D01*
X113657617Y-38723297D01*
X113657617Y-38866154D01*
X113705236Y-38961392D01*
X113752855Y-39009011D01*
X113848093Y-39056630D01*
X114229045Y-39056630D01*
X113324283Y-38532820D02*
X112705236Y-38532820D01*
X113038569Y-38913773D01*
X112895712Y-38913773D01*
X112800474Y-38961392D01*
X112752855Y-39009011D01*
X112705236Y-39104249D01*
X112705236Y-39342344D01*
X112752855Y-39437582D01*
X112800474Y-39485201D01*
X112895712Y-39532820D01*
X113181426Y-39532820D01*
X113276664Y-39485201D01*
X113324283Y-39437582D01*
X111800474Y-38532820D02*
X112276664Y-38532820D01*
X112324283Y-39009011D01*
X112276664Y-38961392D01*
X112181426Y-38913773D01*
X111943331Y-38913773D01*
X111848093Y-38961392D01*
X111800474Y-39009011D01*
X111752855Y-39104249D01*
X111752855Y-39342344D01*
X111800474Y-39437582D01*
X111848093Y-39485201D01*
X111943331Y-39532820D01*
X112181426Y-39532820D01*
X112276664Y-39485201D01*
X112324283Y-39437582D01*
X117395857Y-39569380D02*
X117729190Y-39093190D01*
X117967285Y-39569380D02*
X117967285Y-38569380D01*
X117586333Y-38569380D01*
X117491095Y-38617000D01*
X117443476Y-38664619D01*
X117395857Y-38759857D01*
X117395857Y-38902714D01*
X117443476Y-38997952D01*
X117491095Y-39045571D01*
X117586333Y-39093190D01*
X117967285Y-39093190D01*
X117062523Y-38569380D02*
X116443476Y-38569380D01*
X116776809Y-38950333D01*
X116633952Y-38950333D01*
X116538714Y-38997952D01*
X116491095Y-39045571D01*
X116443476Y-39140809D01*
X116443476Y-39378904D01*
X116491095Y-39474142D01*
X116538714Y-39521761D01*
X116633952Y-39569380D01*
X116919666Y-39569380D01*
X117014904Y-39521761D01*
X117062523Y-39474142D01*
X115586333Y-38902714D02*
X115586333Y-39569380D01*
X115824428Y-38521761D02*
X116062523Y-39236047D01*
X115443476Y-39236047D01*
X98366857Y-106833942D02*
X98414476Y-106881561D01*
X98557333Y-106929180D01*
X98652571Y-106929180D01*
X98795428Y-106881561D01*
X98890666Y-106786323D01*
X98938285Y-106691085D01*
X98985904Y-106500609D01*
X98985904Y-106357752D01*
X98938285Y-106167276D01*
X98890666Y-106072038D01*
X98795428Y-105976800D01*
X98652571Y-105929180D01*
X98557333Y-105929180D01*
X98414476Y-105976800D01*
X98366857Y-106024419D01*
X98033523Y-105929180D02*
X97414476Y-105929180D01*
X97747809Y-106310133D01*
X97604952Y-106310133D01*
X97509714Y-106357752D01*
X97462095Y-106405371D01*
X97414476Y-106500609D01*
X97414476Y-106738704D01*
X97462095Y-106833942D01*
X97509714Y-106881561D01*
X97604952Y-106929180D01*
X97890666Y-106929180D01*
X97985904Y-106881561D01*
X98033523Y-106833942D01*
X96795428Y-105929180D02*
X96700190Y-105929180D01*
X96604952Y-105976800D01*
X96557333Y-106024419D01*
X96509714Y-106119657D01*
X96462095Y-106310133D01*
X96462095Y-106548228D01*
X96509714Y-106738704D01*
X96557333Y-106833942D01*
X96604952Y-106881561D01*
X96700190Y-106929180D01*
X96795428Y-106929180D01*
X96890666Y-106881561D01*
X96938285Y-106833942D01*
X96985904Y-106738704D01*
X97033523Y-106548228D01*
X97033523Y-106310133D01*
X96985904Y-106119657D01*
X96938285Y-106024419D01*
X96890666Y-105976800D01*
X96795428Y-105929180D01*
X98178857Y-102719142D02*
X98226476Y-102766761D01*
X98369333Y-102814380D01*
X98464571Y-102814380D01*
X98607428Y-102766761D01*
X98702666Y-102671523D01*
X98750285Y-102576285D01*
X98797904Y-102385809D01*
X98797904Y-102242952D01*
X98750285Y-102052476D01*
X98702666Y-101957238D01*
X98607428Y-101862000D01*
X98464571Y-101814380D01*
X98369333Y-101814380D01*
X98226476Y-101862000D01*
X98178857Y-101909619D01*
X97797904Y-101909619D02*
X97750285Y-101862000D01*
X97655047Y-101814380D01*
X97416952Y-101814380D01*
X97321714Y-101862000D01*
X97274095Y-101909619D01*
X97226476Y-102004857D01*
X97226476Y-102100095D01*
X97274095Y-102242952D01*
X97845523Y-102814380D01*
X97226476Y-102814380D01*
X96750285Y-102814380D02*
X96559809Y-102814380D01*
X96464571Y-102766761D01*
X96416952Y-102719142D01*
X96321714Y-102576285D01*
X96274095Y-102385809D01*
X96274095Y-102004857D01*
X96321714Y-101909619D01*
X96369333Y-101862000D01*
X96464571Y-101814380D01*
X96655047Y-101814380D01*
X96750285Y-101862000D01*
X96797904Y-101909619D01*
X96845523Y-102004857D01*
X96845523Y-102242952D01*
X96797904Y-102338190D01*
X96750285Y-102385809D01*
X96655047Y-102433428D01*
X96464571Y-102433428D01*
X96369333Y-102385809D01*
X96321714Y-102338190D01*
X96274095Y-102242952D01*
X98178857Y-100636342D02*
X98226476Y-100683961D01*
X98369333Y-100731580D01*
X98464571Y-100731580D01*
X98607428Y-100683961D01*
X98702666Y-100588723D01*
X98750285Y-100493485D01*
X98797904Y-100303009D01*
X98797904Y-100160152D01*
X98750285Y-99969676D01*
X98702666Y-99874438D01*
X98607428Y-99779200D01*
X98464571Y-99731580D01*
X98369333Y-99731580D01*
X98226476Y-99779200D01*
X98178857Y-99826819D01*
X97797904Y-99826819D02*
X97750285Y-99779200D01*
X97655047Y-99731580D01*
X97416952Y-99731580D01*
X97321714Y-99779200D01*
X97274095Y-99826819D01*
X97226476Y-99922057D01*
X97226476Y-100017295D01*
X97274095Y-100160152D01*
X97845523Y-100731580D01*
X97226476Y-100731580D01*
X96655047Y-100160152D02*
X96750285Y-100112533D01*
X96797904Y-100064914D01*
X96845523Y-99969676D01*
X96845523Y-99922057D01*
X96797904Y-99826819D01*
X96750285Y-99779200D01*
X96655047Y-99731580D01*
X96464571Y-99731580D01*
X96369333Y-99779200D01*
X96321714Y-99826819D01*
X96274095Y-99922057D01*
X96274095Y-99969676D01*
X96321714Y-100064914D01*
X96369333Y-100112533D01*
X96464571Y-100160152D01*
X96655047Y-100160152D01*
X96750285Y-100207771D01*
X96797904Y-100255390D01*
X96845523Y-100350628D01*
X96845523Y-100541104D01*
X96797904Y-100636342D01*
X96750285Y-100683961D01*
X96655047Y-100731580D01*
X96464571Y-100731580D01*
X96369333Y-100683961D01*
X96321714Y-100636342D01*
X96274095Y-100541104D01*
X96274095Y-100350628D01*
X96321714Y-100255390D01*
X96369333Y-100207771D01*
X96464571Y-100160152D01*
X98092457Y-98604342D02*
X98140076Y-98651961D01*
X98282933Y-98699580D01*
X98378171Y-98699580D01*
X98521028Y-98651961D01*
X98616266Y-98556723D01*
X98663885Y-98461485D01*
X98711504Y-98271009D01*
X98711504Y-98128152D01*
X98663885Y-97937676D01*
X98616266Y-97842438D01*
X98521028Y-97747200D01*
X98378171Y-97699580D01*
X98282933Y-97699580D01*
X98140076Y-97747200D01*
X98092457Y-97794819D01*
X97711504Y-97794819D02*
X97663885Y-97747200D01*
X97568647Y-97699580D01*
X97330552Y-97699580D01*
X97235314Y-97747200D01*
X97187695Y-97794819D01*
X97140076Y-97890057D01*
X97140076Y-97985295D01*
X97187695Y-98128152D01*
X97759123Y-98699580D01*
X97140076Y-98699580D01*
X96806742Y-97699580D02*
X96140076Y-97699580D01*
X96568647Y-98699580D01*
X98178857Y-96521542D02*
X98226476Y-96569161D01*
X98369333Y-96616780D01*
X98464571Y-96616780D01*
X98607428Y-96569161D01*
X98702666Y-96473923D01*
X98750285Y-96378685D01*
X98797904Y-96188209D01*
X98797904Y-96045352D01*
X98750285Y-95854876D01*
X98702666Y-95759638D01*
X98607428Y-95664400D01*
X98464571Y-95616780D01*
X98369333Y-95616780D01*
X98226476Y-95664400D01*
X98178857Y-95712019D01*
X97797904Y-95712019D02*
X97750285Y-95664400D01*
X97655047Y-95616780D01*
X97416952Y-95616780D01*
X97321714Y-95664400D01*
X97274095Y-95712019D01*
X97226476Y-95807257D01*
X97226476Y-95902495D01*
X97274095Y-96045352D01*
X97845523Y-96616780D01*
X97226476Y-96616780D01*
X96369333Y-95616780D02*
X96559809Y-95616780D01*
X96655047Y-95664400D01*
X96702666Y-95712019D01*
X96797904Y-95854876D01*
X96845523Y-96045352D01*
X96845523Y-96426304D01*
X96797904Y-96521542D01*
X96750285Y-96569161D01*
X96655047Y-96616780D01*
X96464571Y-96616780D01*
X96369333Y-96569161D01*
X96321714Y-96521542D01*
X96274095Y-96426304D01*
X96274095Y-96188209D01*
X96321714Y-96092971D01*
X96369333Y-96045352D01*
X96464571Y-95997733D01*
X96655047Y-95997733D01*
X96750285Y-96045352D01*
X96797904Y-96092971D01*
X96845523Y-96188209D01*
X98178857Y-94540342D02*
X98226476Y-94587961D01*
X98369333Y-94635580D01*
X98464571Y-94635580D01*
X98607428Y-94587961D01*
X98702666Y-94492723D01*
X98750285Y-94397485D01*
X98797904Y-94207009D01*
X98797904Y-94064152D01*
X98750285Y-93873676D01*
X98702666Y-93778438D01*
X98607428Y-93683200D01*
X98464571Y-93635580D01*
X98369333Y-93635580D01*
X98226476Y-93683200D01*
X98178857Y-93730819D01*
X97797904Y-93730819D02*
X97750285Y-93683200D01*
X97655047Y-93635580D01*
X97416952Y-93635580D01*
X97321714Y-93683200D01*
X97274095Y-93730819D01*
X97226476Y-93826057D01*
X97226476Y-93921295D01*
X97274095Y-94064152D01*
X97845523Y-94635580D01*
X97226476Y-94635580D01*
X96321714Y-93635580D02*
X96797904Y-93635580D01*
X96845523Y-94111771D01*
X96797904Y-94064152D01*
X96702666Y-94016533D01*
X96464571Y-94016533D01*
X96369333Y-94064152D01*
X96321714Y-94111771D01*
X96274095Y-94207009D01*
X96274095Y-94445104D01*
X96321714Y-94540342D01*
X96369333Y-94587961D01*
X96464571Y-94635580D01*
X96702666Y-94635580D01*
X96797904Y-94587961D01*
X96845523Y-94540342D01*
X98077257Y-92508342D02*
X98124876Y-92555961D01*
X98267733Y-92603580D01*
X98362971Y-92603580D01*
X98505828Y-92555961D01*
X98601066Y-92460723D01*
X98648685Y-92365485D01*
X98696304Y-92175009D01*
X98696304Y-92032152D01*
X98648685Y-91841676D01*
X98601066Y-91746438D01*
X98505828Y-91651200D01*
X98362971Y-91603580D01*
X98267733Y-91603580D01*
X98124876Y-91651200D01*
X98077257Y-91698819D01*
X97696304Y-91698819D02*
X97648685Y-91651200D01*
X97553447Y-91603580D01*
X97315352Y-91603580D01*
X97220114Y-91651200D01*
X97172495Y-91698819D01*
X97124876Y-91794057D01*
X97124876Y-91889295D01*
X97172495Y-92032152D01*
X97743923Y-92603580D01*
X97124876Y-92603580D01*
X96267733Y-91936914D02*
X96267733Y-92603580D01*
X96505828Y-91555961D02*
X96743923Y-92270247D01*
X96124876Y-92270247D01*
X98077257Y-104700342D02*
X98124876Y-104747961D01*
X98267733Y-104795580D01*
X98362971Y-104795580D01*
X98505828Y-104747961D01*
X98601066Y-104652723D01*
X98648685Y-104557485D01*
X98696304Y-104367009D01*
X98696304Y-104224152D01*
X98648685Y-104033676D01*
X98601066Y-103938438D01*
X98505828Y-103843200D01*
X98362971Y-103795580D01*
X98267733Y-103795580D01*
X98124876Y-103843200D01*
X98077257Y-103890819D01*
X97696304Y-103890819D02*
X97648685Y-103843200D01*
X97553447Y-103795580D01*
X97315352Y-103795580D01*
X97220114Y-103843200D01*
X97172495Y-103890819D01*
X97124876Y-103986057D01*
X97124876Y-104081295D01*
X97172495Y-104224152D01*
X97743923Y-104795580D01*
X97124876Y-104795580D01*
X96791542Y-103795580D02*
X96172495Y-103795580D01*
X96505828Y-104176533D01*
X96362971Y-104176533D01*
X96267733Y-104224152D01*
X96220114Y-104271771D01*
X96172495Y-104367009D01*
X96172495Y-104605104D01*
X96220114Y-104700342D01*
X96267733Y-104747961D01*
X96362971Y-104795580D01*
X96648685Y-104795580D01*
X96743923Y-104747961D01*
X96791542Y-104700342D01*
X133051714Y-67000571D02*
X132908857Y-67048190D01*
X132861238Y-67095809D01*
X132813619Y-67191047D01*
X132813619Y-67333904D01*
X132861238Y-67429142D01*
X132908857Y-67476761D01*
X133004095Y-67524380D01*
X133385047Y-67524380D01*
X133385047Y-66524380D01*
X133051714Y-66524380D01*
X132956476Y-66572000D01*
X132908857Y-66619619D01*
X132861238Y-66714857D01*
X132861238Y-66810095D01*
X132908857Y-66905333D01*
X132956476Y-66952952D01*
X133051714Y-67000571D01*
X133385047Y-67000571D01*
X132527904Y-66524380D02*
X131956476Y-66524380D01*
X132242190Y-67524380D02*
X132242190Y-66524380D01*
X131099333Y-67524380D02*
X131670761Y-67524380D01*
X131385047Y-67524380D02*
X131385047Y-66524380D01*
X131480285Y-66667238D01*
X131575523Y-66762476D01*
X131670761Y-66810095D01*
X109673380Y-54995842D02*
X109197190Y-54662509D01*
X109673380Y-54424414D02*
X108673380Y-54424414D01*
X108673380Y-54805366D01*
X108721000Y-54900604D01*
X108768619Y-54948223D01*
X108863857Y-54995842D01*
X109006714Y-54995842D01*
X109101952Y-54948223D01*
X109149571Y-54900604D01*
X109197190Y-54805366D01*
X109197190Y-54424414D01*
X108768619Y-55376795D02*
X108721000Y-55424414D01*
X108673380Y-55519652D01*
X108673380Y-55757747D01*
X108721000Y-55852985D01*
X108768619Y-55900604D01*
X108863857Y-55948223D01*
X108959095Y-55948223D01*
X109101952Y-55900604D01*
X109673380Y-55329176D01*
X109673380Y-55948223D01*
X109006714Y-56805366D02*
X109673380Y-56805366D01*
X108625761Y-56567271D02*
X109340047Y-56329176D01*
X109340047Y-56948223D01*
X94862590Y-54652190D02*
X94862590Y-55128380D01*
X95195923Y-54128380D02*
X94862590Y-54652190D01*
X94529257Y-54128380D01*
X94291161Y-54128380D02*
X93672114Y-54128380D01*
X94005447Y-54509333D01*
X93862590Y-54509333D01*
X93767352Y-54556952D01*
X93719733Y-54604571D01*
X93672114Y-54699809D01*
X93672114Y-54937904D01*
X93719733Y-55033142D01*
X93767352Y-55080761D01*
X93862590Y-55128380D01*
X94148304Y-55128380D01*
X94243542Y-55080761D01*
X94291161Y-55033142D01*
X135781990Y-54128990D02*
X135781990Y-54605180D01*
X136115323Y-53605180D02*
X135781990Y-54128990D01*
X135448657Y-53605180D01*
X135162942Y-53700419D02*
X135115323Y-53652800D01*
X135020085Y-53605180D01*
X134781990Y-53605180D01*
X134686752Y-53652800D01*
X134639133Y-53700419D01*
X134591514Y-53795657D01*
X134591514Y-53890895D01*
X134639133Y-54033752D01*
X135210561Y-54605180D01*
X134591514Y-54605180D01*
X131960857Y-48236142D02*
X132008476Y-48283761D01*
X132151333Y-48331380D01*
X132246571Y-48331380D01*
X132389428Y-48283761D01*
X132484666Y-48188523D01*
X132532285Y-48093285D01*
X132579904Y-47902809D01*
X132579904Y-47759952D01*
X132532285Y-47569476D01*
X132484666Y-47474238D01*
X132389428Y-47379000D01*
X132246571Y-47331380D01*
X132151333Y-47331380D01*
X132008476Y-47379000D01*
X131960857Y-47426619D01*
X131627523Y-47331380D02*
X131008476Y-47331380D01*
X131341809Y-47712333D01*
X131198952Y-47712333D01*
X131103714Y-47759952D01*
X131056095Y-47807571D01*
X131008476Y-47902809D01*
X131008476Y-48140904D01*
X131056095Y-48236142D01*
X131103714Y-48283761D01*
X131198952Y-48331380D01*
X131484666Y-48331380D01*
X131579904Y-48283761D01*
X131627523Y-48236142D01*
X130627523Y-47426619D02*
X130579904Y-47379000D01*
X130484666Y-47331380D01*
X130246571Y-47331380D01*
X130151333Y-47379000D01*
X130103714Y-47426619D01*
X130056095Y-47521857D01*
X130056095Y-47617095D01*
X130103714Y-47759952D01*
X130675142Y-48331380D01*
X130056095Y-48331380D01*
X122626357Y-48807642D02*
X122673976Y-48855261D01*
X122816833Y-48902880D01*
X122912071Y-48902880D01*
X123054928Y-48855261D01*
X123150166Y-48760023D01*
X123197785Y-48664785D01*
X123245404Y-48474309D01*
X123245404Y-48331452D01*
X123197785Y-48140976D01*
X123150166Y-48045738D01*
X123054928Y-47950500D01*
X122912071Y-47902880D01*
X122816833Y-47902880D01*
X122673976Y-47950500D01*
X122626357Y-47998119D01*
X122293023Y-47902880D02*
X121673976Y-47902880D01*
X122007309Y-48283833D01*
X121864452Y-48283833D01*
X121769214Y-48331452D01*
X121721595Y-48379071D01*
X121673976Y-48474309D01*
X121673976Y-48712404D01*
X121721595Y-48807642D01*
X121769214Y-48855261D01*
X121864452Y-48902880D01*
X122150166Y-48902880D01*
X122245404Y-48855261D01*
X122293023Y-48807642D01*
X120721595Y-48902880D02*
X121293023Y-48902880D01*
X121007309Y-48902880D02*
X121007309Y-47902880D01*
X121102547Y-48045738D01*
X121197785Y-48140976D01*
X121293023Y-48188595D01*
X95092757Y-52376342D02*
X95140376Y-52423961D01*
X95283233Y-52471580D01*
X95378471Y-52471580D01*
X95521328Y-52423961D01*
X95616566Y-52328723D01*
X95664185Y-52233485D01*
X95711804Y-52043009D01*
X95711804Y-51900152D01*
X95664185Y-51709676D01*
X95616566Y-51614438D01*
X95521328Y-51519200D01*
X95378471Y-51471580D01*
X95283233Y-51471580D01*
X95140376Y-51519200D01*
X95092757Y-51566819D01*
X94235614Y-51804914D02*
X94235614Y-52471580D01*
X94473709Y-51423961D02*
X94711804Y-52138247D01*
X94092757Y-52138247D01*
X93759423Y-51566819D02*
X93711804Y-51519200D01*
X93616566Y-51471580D01*
X93378471Y-51471580D01*
X93283233Y-51519200D01*
X93235614Y-51566819D01*
X93187995Y-51662057D01*
X93187995Y-51757295D01*
X93235614Y-51900152D01*
X93807042Y-52471580D01*
X93187995Y-52471580D01*
X105364757Y-55957742D02*
X105412376Y-56005361D01*
X105555233Y-56052980D01*
X105650471Y-56052980D01*
X105793328Y-56005361D01*
X105888566Y-55910123D01*
X105936185Y-55814885D01*
X105983804Y-55624409D01*
X105983804Y-55481552D01*
X105936185Y-55291076D01*
X105888566Y-55195838D01*
X105793328Y-55100600D01*
X105650471Y-55052980D01*
X105555233Y-55052980D01*
X105412376Y-55100600D01*
X105364757Y-55148219D01*
X104507614Y-55386314D02*
X104507614Y-56052980D01*
X104745709Y-55005361D02*
X104983804Y-55719647D01*
X104364757Y-55719647D01*
X103459995Y-56052980D02*
X104031423Y-56052980D01*
X103745709Y-56052980D02*
X103745709Y-55052980D01*
X103840947Y-55195838D01*
X103936185Y-55291076D01*
X104031423Y-55338695D01*
M02*
