G04 #@! TF.GenerationSoftware,KiCad,Pcbnew,(5.1.5)-3*
G04 #@! TF.CreationDate,2021-07-29T12:19:05+02:00*
G04 #@! TF.ProjectId,arduradio,61726475-7261-4646-996f-2e6b69636164,rev?*
G04 #@! TF.SameCoordinates,Original*
G04 #@! TF.FileFunction,Profile,NP*
%FSLAX46Y46*%
G04 Gerber Fmt 4.6, Leading zero omitted, Abs format (unit mm)*
G04 Created by KiCad (PCBNEW (5.1.5)-3) date 2021-07-29 12:19:05*
%MOMM*%
%LPD*%
G04 APERTURE LIST*
%ADD10C,0.150000*%
G04 APERTURE END LIST*
D10*
X68580000Y-110490000D02*
G75*
G02X63500000Y-105410000I0J5080000D01*
G01*
X190500000Y-104140000D02*
G75*
G02X184150000Y-110490000I-6350000J0D01*
G01*
X63500000Y-33020000D02*
G75*
G02X68580000Y-27940000I5080000J0D01*
G01*
X185420000Y-27940000D02*
G75*
G02X190500000Y-33020000I0J-5080000D01*
G01*
X63500000Y-105410000D02*
X63500000Y-33020000D01*
X184150000Y-110490000D02*
X68580000Y-110490000D01*
X190500000Y-33020000D02*
X190500000Y-104140000D01*
X68580000Y-27940000D02*
X185420000Y-27940000D01*
M02*
